ver/model/tnzso16.vcd
$date
	Mon Jan 22 07:03:46 2024
$end
$version
	GTKWave Analyzer v3.3.103 (w)1999-2019 BSI
$end
$timescale
	1ps
$end
$scope module TOP $end
$scope module game_test $end
$scope module u_game $end
$scope module u_game $end
$scope module u_sound $end
$scope module u_2203 $end
$scope module u_jt12 $end
$scope module gen_ssg $end
$scope module u_psg $end
$var wire 4 " addr[3:0] $end
$var wire 1 # wr_n $end
$var wire 8 $ din[7:0] $end
$upscope $end
$upscope $end
$upscope $end
$upscope $end
$upscope $end
$upscope $end
$upscope $end
$upscope $end
$upscope $end
$enddefinitions $end
#5052547564176
$dumpvars
1#
b0 $
b1111 "
$end
#5068563705744
b1110 "
#5068571705232
b1111 "
#5085464624016
b1110 "
#5085472623504
b1111 "
#5102353543056
b1110 "
#5102361542544
b1111 "
#5119247795088
b1110 "
#5119255794576
b1111 "
#5136146546832
b1110 "
#5136154546320
b1111 "
#5153039632272
b1110 "
#5153047798416
b1111 "
#5169938217360
b1110 "
#5169946279344
b1111 "
#5186830469520
b1110 "
#5186838469008
b1111 "
#5189527963536
b0 "
#5189537462928
0#
b110110 $
#5189537942064
1#
#5189541462672
b1 "
#5189550962064
0#
b0 $
#5189552024496
1#
#5189561961360
b10 "
#5189571627408
0#
b110100 $
#5189571939888
1#
#5189575627152
b11 "
#5189585126544
0#
b0 $
#5189586084816
1#
#5189596125840
b100 "
#5189605625232
0#
b111000 $
#5189605937712
1#
#5189609624976
b101 "
#5189619124368
0#
b0 $
#5189620082640
1#
#5189631456912
b110 "
#5189640956304
0#
#5189641935408
1#
#5189650789008
b111 "
#5189660288400
0#
b111000 $
#5189661934128
1#
#5189670121104
b1000 "
#5189679620496
0#
b10000 $
#5189679932976
1#
#5189689453200
b1001 "
#5189698952592
0#
#5189699931696
1#
#5189708785296
b1010 "
#5189718284688
0#
#5189719930416
1#
#5189742116496
b1011 "
#5189751615888
0#
b0 $
#5189751928368
1#
#5189755615632
b1100 "
#5189765115024
0#
b11000 $
#5189766073296
1#
#5189772947856
b1101 "
#5189782447248
0#
b1001 $
#5189783926320
1#
#5203726888080
b1110 "
#5203734887568
b1111 "
#5206435048080
b10 "
#5206444547472
0#
b101010 $
#5206444859952
1#
#5206448547216
b11 "
#5206458046608
0#
b0 $
#5206459004880
1#
#5206469045904
b100 "
#5206478545296
0#
b101110 $
#5206478857776
1#
#5206482545040
b101 "
#5206492044432
0#
b0 $
#5206493002704
1#
#5220625973136
b1110 "
#5220633972624
b1111 "
#5223334966416
b10 "
#5223344465808
0#
b110100 $
#5223345778224
1#
#5223348465552
b11 "
#5223357964944
0#
b0 $
#5223359777328
1#
#5223369130896
b100 "
#5223378630288
0#
b111000 $
#5223379776048
1#
#5223382630032
b101 "
#5223392129424
0#
b0 $
#5223393775152
1#
#5237518558608
b1110 "
#5237526558096
b1111 "
#5240211719568
b0 "
#5240221218960
0#
b101100 $
#5240222698032
1#
#5240225218704
b1 "
#5240234718096
0#
b0 $
#5240236697136
1#
#5240245717392
b10 "
#5240255216784
0#
b101101 $
#5240256695856
1#
#5240259216528
b11 "
#5240268715920
0#
b0 $
#5240270694960
1#
#5240279715216
b100 "
#5240289214608
0#
b110001 $
#5240290693680
1#
#5240293214352
b101 "
#5240302713744
0#
b0 $
#5240304692784
1#
#5254405977744
b1110 "
#5254413977232
b1111 "
#5257115470992
b10 "
#5257124970384
0#
b110100 $
#5257125616176
1#
#5257128970128
b11 "
#5257138469520
0#
b0 $
#5257139615280
1#
#5257149468816
b100 "
#5257158968208
0#
b111000 $
#5257159614000
1#
#5257162967952
b101 "
#5257172634000
0#
b0 $
#5257173696432
1#
#5271306562704
b1110 "
#5271314562192
b1111 "
#5274011389584
b10 "
#5274020888976
0#
b101010 $
#5274022534704
1#
#5274024888720
b11 "
#5274034388112
0#
b0 $
#5274034533936
1#
#5274045387408
b100 "
#5274054886800
0#
b101110 $
#5274056532528
1#
#5274058886544
b101 "
#5274068385936
0#
b0 $
#5274068531760
1#
#5288194481808
b1110 "
#5288202647952
b1111 "
#5290887476112
b0 "
#5290896975504
0#
b110110 $
#5290897454640
1#
#5290900975248
b1 "
#5290910474640
0#
b0 $
#5290911537072
1#
#5290921473936
b10 "
#5290930973328
0#
b110100 $
#5290931452464
1#
#5290934973072
b11 "
#5290944472464
0#
b0 $
#5290945534896
1#
#5290955471760
b100 "
#5290965137808
0#
b111000 $
#5290965450288
1#
#5290969137552
b101 "
#5290978636944
0#
b0 $
#5290979595216
1#
#5305088067216
b1110 "
#5305096066704
b1111 "
#5307798227088
b10 "
#5307807726480
0#
b101101 $
#5307808372272
1#
#5307811726224
b11 "
#5307821225616
0#
b0 $
#5307822371376
1#
#5307832224912
b100 "
#5307841724304
0#
b110001 $
#5307842370096
1#
#5307845724048
b101 "
#5307855390096
0#
b0 $
#5307856452528
1#
#5321993485200
b1110 "
#5322001484688
b1111 "
#5324698812048
b10 "
#5324708311440
0#
b110100 $
#5324709373872
1#
#5324712311184
b11 "
#5324721810576
0#
b0 $
#5324723289648
1#
#5324732809872
b100 "
#5324742309264
0#
b111000 $
#5324743371696
1#
#5324746309008
b101 "
#5324755808400
0#
b0 $
#5324757287472
1#
#5338888237200
b1110 "
#5338896236688
b1111 "
#5341585397904
b0 "
#5341594897296
0#
b101111 $
#5341596209712
1#
#5341598897040
b1 "
#5341608563088
0#
b0 $
#5341610208816
1#
#5341619562384
b10 "
#5341629061776
0#
b101010 $
#5341630207536
1#
#5341633061520
b11 "
#5341642560912
0#
b0 $
#5341644206640
1#
#5341653560208
b100 "
#5341663059600
0#
b101110 $
#5341664205360
1#
#5341667059344
b101 "
#5341676558736
0#
b0 $
#5341678204464
1#
#5355780489360
b1110 "
#5355788488848
b1111 "
#5358485316240
b10 "
#5358494815632
0#
b110100 $
#5358495128112
1#
#5358498815376
b11 "
#5358508314768
0#
b0 $
#5358509273040
1#
#5358519314064
b100 "
#5358528813456
0#
b111000 $
#5358529125936
1#
#5358532813200
b101 "
#5358542312592
0#
b0 $
#5358543270864
1#
#5372676741264
b1110 "
#5372684740752
b1111 "
#5375381234832
b10 "
#5375390734224
0#
b101101 $
#5375392046640
1#
#5375394733968
b11 "
#5375404233360
0#
b0 $
#5375406045744
1#
#5375415399312
b100 "
#5375424898704
0#
b110001 $
#5375426044464
1#
#5375428898448
b101 "
#5375438397840
0#
b0 $
#5375440043568
1#
#5389569160080
b1110 "
#5389577159568
b1111 "
#5392262654352
b0 "
#5392272153744
0#
b110110 $
#5392273112016
1#
#5392276153488
b1 "
#5392285652880
0#
b0 $
#5392286965296
1#
#5392296652176
b10 "
#5392306151568
0#
b110100 $
#5392307109840
1#
#5392310151312
b11 "
#5392319650704
0#
b0 $
#5392320963120
1#
#5392330650000
b100 "
#5392340149392
0#
b111000 $
#5392341107664
1#
#5392344149136
b101 "
#5392353648528
0#
b0 $
#5392354960944
1#
#5406458245776
b1110 "
#5406466245264
b1111 "
#5409164239248
b10 "
#5409173738640
0#
b101010 $
#5409173884464
1#
#5409177738384
b11 "
#5409187237776
0#
b0 $
#5409187883568
1#
#5409198237072
b100 "
#5409207736464
0#
b101110 $
#5409207882288
1#
#5409211736208
b101 "
#5409221235600
0#
b0 $
#5409221881392
1#
#5423360163984
b1110 "
#5423368163472
b1111 "
#5426067657360
b10 "
#5426077156752
0#
b110100 $
#5426078802480
1#
#5426081156496
b11 "
#5426090655888
0#
b0 $
#5426090801712
1#
#5426101655184
b100 "
#5426111154576
0#
b111000 $
#5426112800304
1#
#5426115154320
b101 "
#5426124653712
0#
b0 $
#5426124799536
1#
#5440254416016
b1110 "
#5440262415504
b1111 "
#5442950910096
b0 "
#5442960409488
0#
b101100 $
#5442961721904
1#
#5442964409232
b1 "
#5442974075280
0#
b0 $
#5442975721008
1#
#5442985074576
b10 "
#5442994573968
0#
b101101 $
#5442995719728
1#
#5442998573712
b11 "
#5443008073104
0#
b0 $
#5443009718832
1#
#5443019072400
b100 "
#5443028571792
0#
b110001 $
#5443029717552
1#
#5443032571536
b101 "
#5443042070928
0#
b0 $
#5443043716656
1#
#5457148001424
b1110 "
#5457156000912
b1111 "
#5459855161488
b10 "
#5459864660880
0#
b110100 $
#5459866639920
1#
#5459868660624
b11 "
#5459878160016
0#
b0 $
#5459878639152
1#
#5459889325968
b100 "
#5459898825360
0#
b111000 $
#5459900637744
1#
#5459902825104
b101 "
#5459912324496
0#
b0 $
#5459912636976
1#
#5474042920080
b1110 "
#5474050919568
b1111 "
#5476746413712
b10 "
#5476755913104
0#
b101010 $
#5476757558832
1#
#5476759912848
b11 "
#5476769412240
0#
b0 $
#5476769558064
1#
#5476780411536
b100 "
#5476789910928
0#
b101110 $
#5476791556656
1#
#5476793910672
b101 "
#5476803410064
0#
b0 $
#5476803555888
1#
#5490937838736
b1110 "
#5490945838224
b1111 "
#5493627499920
b0 "
#5493636999312
0#
b110110 $
#5493638478384
1#
#5493640999056
b1 "
#5493650498448
0#
b0 $
#5493652477488
1#
#5493661497744
b10 "
#5493670997136
0#
b110100 $
#5493672476208
1#
#5493674996880
b11 "
#5493684496272
0#
b0 $
#5493686475312
1#
#5493695495568
b100 "
#5493704994960
0#
b111000 $
#5493706474032
1#
#5493708994704
b101 "
#5493718494096
0#
b0 $
#5493720473136
1#
#5507832924048
b1110 "
#5507840923536
b1111 "
#5510537917584
b10 "
#5510547416976
0#
b101101 $
#5510549396016
1#
#5510551416720
b11 "
#5510560916112
0#
b0 $
#5510561395248
1#
#5510572082064
b100 "
#5510581581456
0#
b110001 $
#5510583393840
1#
#5510585581200
b101 "
#5510595080592
0#
b0 $
#5510595393072
1#
#5524726509456
b1110 "
#5524734508944
b1111 "
#5527435169424
b10 "
#5527444668816
0#
b110100 $
#5527446314544
1#
#5527448668560
b11 "
#5527458167952
0#
b0 $
#5527458313776
1#
#5527469167248
b100 "
#5527478666640
0#
b111000 $
#5527480312368
1#
#5527482666384
b101 "
#5527492165776
0#
b0 $
#5527492311600
1#
#5541618094992
b1110 "
#5541626094480
b1111 "
#5544315089040
b0 "
#5544324588432
0#
b101111 $
#5544325234224
1#
#5544328588176
b1 "
#5544338254224
0#
b0 $
#5544339316656
1#
#5544349253520
b10 "
#5544358752912
0#
b101010 $
#5544359232048
1#
#5544362752656
b11 "
#5544372252048
0#
b0 $
#5544373314480
1#
#5544383251344
b100 "
#5544392750736
0#
b101110 $
#5544393229872
1#
#5544396750480
b101 "
#5544406249872
0#
b0 $
#5544407312304
1#
#5558523908784
b1110 "
#5558531845776
b1111 "
#5561224673424
b10 "
#5561234172816
0#
b110100 $
#5561236151856
1#
#5561238172560
b11 "
#5561247671952
0#
b0 $
#5561248151088
1#
#5561258837904
b100 "
#5561268337296
0#
b111000 $
#5561270149680
1#
#5561272337040
b101 "
#5561281836432
0#
b0 $
#5561282148912
1#
#5575413598608
b1110 "
#5575421598096
b1111 "
#5578121591952
b10 "
#5578131091344
0#
b101101 $
#5578133070384
1#
#5578135091088
b11 "
#5578144590480
0#
b0 $
#5578145069616
1#
#5578155756432
b100 "
#5578165255824
0#
b110001 $
#5578167068208
1#
#5578169255568
b101 "
#5578178754960
0#
b0 $
#5578179067440
1#
#5592306184080
b1110 "
#5592314183568
b1111 "
#5594999678352
b0 "
#5595009177744
0#
b110110 $
#5595010136016
1#
#5595013177488
b1 "
#5595022676880
0#
b0 $
#5595023989296
1#
#5595033676176
b10 "
#5595043175568
0#
b110100 $
#5595044133840
1#
#5595047175312
b11 "
#5595056674704
0#
b0 $
#5595057987120
1#
#5595067674000
b100 "
#5595077173392
0#
b111000 $
#5595078131664
1#
#5595081173136
b101 "
#5595090672528
0#
b0 $
#5595091984944
1#
#5609205935760
b1110 "
#5609213935248
b1111 "
#5611913929104
b10 "
#5611923428496
0#
b101010 $
#5611924907568
1#
#5611927428240
b11 "
#5611936927632
0#
b0 $
#5611938906672
1#
#5611947926928
b100 "
#5611957426320
0#
b101110 $
#5611958905392
1#
#5611961426064
b101 "
#5611970925456
0#
b0 $
#5611972904496
1#
#5626097187984
b1110 "
#5626105187472
b1111 "
#5628805347984
b10 "
#5628814847376
0#
b110100 $
#5628815993136
1#
#5628818847120
b11 "
#5628828346512
0#
b0 $
#5628829825584
1#
#5628839345808
b100 "
#5628848845200
0#
b111000 $
#5628849907632
1#
#5628852844944
b101 "
#5628862344336
0#
b0 $
#5628863823408
1#
#5642992106640
b1110 "
#5643000106128
b1111 "
#5645687267472
b0 "
#5645696766864
0#
b101100 $
#5645698745904
1#
#5645700766608
b1 "
#5645710432656
0#
b0 $
#5645710745136
1#
#5645721431952
b10 "
#5645730931344
0#
b101101 $
#5645732743728
1#
#5645734931088
b11 "
#5645744430480
0#
b0 $
#5645744742960
1#
#5645755429776
b100 "
#5645764929168
0#
b110001 $
#5645766741552
1#
#5645768928912
b101 "
#5645778428304
0#
b0 $
#5645778740784
1#
#5659887691920
b1110 "
#5659895691408
b1111 "
#5662597518480
b10 "
#5662607017872
0#
b110100 $
#5662607663664
1#
#5662611017616
b11 "
#5662620517008
0#
b0 $
#5662621662768
1#
#5662631516304
b100 "
#5662641015696
0#
b111000 $
#5662641661488
1#
#5662645015440
b101 "
#5662654681488
0#
b0 $
#5662655743920
1#
#5676785777040
b1110 "
#5676793839024
b1111 "
#5679491770512
b10 "
#5679501269904
0#
b101010 $
#5679502582320
1#
#5679505269648
b11 "
#5679514769040
0#
b0 $
#5679516581424
1#
#5679525934992
b100 "
#5679535434384
0#
b101110 $
#5679536580144
1#
#5679539434128
b101 "
#5679548933520
0#
b0 $
#5679550579248
1#
#5693685695376
b1110 "
#5693693694864
b1111 "
#5696382522768
b0 "
#5696392022160
0#
b110110 $
#5696393501232
1#
#5696396021904
b1 "
#5696405521296
0#
b0 $
#5696407500336
1#
#5696416520592
b10 "
#5696426019984
0#
b110100 $
#5696427499056
1#
#5696430019728
b11 "
#5696439519120
0#
b0 $
#5696441498160
1#
#5696450518416
b100 "
#5696460017808
0#
b111000 $
#5696461496880
1#
#5696464017552
b101 "
#5696473516944
0#
b0 $
#5696475495984
1#
#5710568281488
b1110 "
#5710576280976
b1111 "
#5713273608336
b10 "
#5713283107728
0#
b101101 $
#5713284420144
1#
#5713287107472
b11 "
#5713296606864
0#
b0 $
#5713298419248
1#
#5713307772816
b100 "
#5713317272208
0#
b110001 $
#5713318417968
1#
#5713321271952
b101 "
#5713330771344
0#
b0 $
#5713332417072
1#
#5727466866576
b1110 "
#5727474866064
b1111 "
#5730171526800
b10 "
#5730181026192
0#
b110100 $
#5730181338672
1#
#5730185025936
b11 "
#5730194525328
0#
b0 $
#5730195441936
1#
#5730205524624
b100 "
#5730215024016
0#
b111000 $
#5730215336496
1#
#5730219023760
b101 "
#5730228523152
0#
b0 $
#5730229481424
1#
#5744361785232
b1110 "
#5744369784720
b1111 "
#5747052113040
b0 "
#5747061612432
0#
b101111 $
#5747062258224
1#
#5747065612176
b1 "
#5747075278224
0#
b0 $
#5747076340656
1#
#5747086277520
b10 "
#5747095776912
0#
b101010 $
#5747096256048
1#
#5747099776656
b11 "
#5747109276048
0#
b0 $
#5747110338480
1#
#5747120275344
b100 "
#5747129774736
0#
b101110 $
#5747130253872
1#
#5747133774480
b101 "
#5747143273872
0#
b0 $
#5747144419632
1#
#5761251870864
b1110 "
#5761259870352
b1111 "
#5763960864144
b10 "
#5763970363536
0#
b110100 $
#5763971321808
1#
#5763974363280
b11 "
#5763983862672
0#
b0 $
#5763985175088
1#
#5763994861968
b100 "
#5764004361360
0#
b111000 $
#5764005319632
1#
#5764008361104
b101 "
#5764017860496
0#
b0 $
#5764019172912
1#
#5778159955344
b1110 "
#5778167954832
b1111 "
#5780869115280
b10 "
#5780878614672
0#
b101101 $
#5780880093744
1#
#5780882614416
b11 "
#5780892113808
0#
b0 $
#5780894092848
1#
#5780903113104
b100 "
#5780912612496
0#
b110001 $
#5780914091568
1#
#5780916612240
b101 "
#5780926111632
0#
b0 $
#5780928090672
1#
#5795054540688
b1110 "
#5795062602672
b1111 "
#5797751368080
b0 "
#5797760867472
0#
b110110 $
#5797761013296
1#
#5797764867216
b1 "
#5797774366608
0#
b0 $
#5797775012400
1#
#5797785365904
b10 "
#5797794865296
0#
b110100 $
#5797795011120
1#
#5797798865040
b11 "
#5797808364432
0#
b0 $
#5797809010224
1#
#5797819363728
b100 "
#5797828863120
0#
b111000 $
#5797829008944
1#
#5797832862864
b101 "
#5797842362256
0#
b0 $
#5797843008048
1#
#5811936626832
b1110 "
#5811944626320
b1111 "
#5814642120336
b10 "
#5814651619728
0#
b101010 $
#5814651932208
1#
#5814655619472
b11 "
#5814665118864
0#
b0 $
#5814666077136
1#
#5814676118160
b100 "
#5814685617552
0#
b101110 $
#5814685930032
1#
#5814689617296
b101 "
#5814699116688
0#
b0 $
#5814700074960
1#
#5828839544976
b1110 "
#5828847544464
b1111 "
#5831547371664
b10 "
#5831556871056
0#
b110100 $
#5831558850096
1#
#5831560870800
b11 "
#5831570370192
0#
b0 $
#5831570849328
1#
#5831581369488
b100 "
#5831590868880
0#
b111000 $
#5831592847920
1#
#5831594868624
b101 "
#5831604368016
0#
b0 $
#5831604847152
1#
#5845729297296
b1110 "
#5845737296784
b1111 "
#5848422791568
b0 "
#5848432290960
0#
b101100 $
#5848433770032
1#
#5848436290704
b1 "
#5848445790096
0#
b0 $
#5848447769136
1#
#5848456789392
b10 "
#5848466288784
0#
b101101 $
#5848467767856
1#
#5848470288528
b11 "
#5848479787920
0#
b0 $
#5848481766960
1#
#5848490787216
b100 "
#5848500286608
0#
b110001 $
#5848501765680
1#
#5848504286352
b101 "
#5848513785744
0#
b0 $
#5848515785616
1#
#5862627882384
b1110 "
#5862635881872
b1111 "
#5865333209232
b10 "
#5865342708624
0#
b110100 $
#5865344687664
1#
#5865346708368
b11 "
#5865356207760
0#
b0 $
#5865356686896
1#
#5865367373712
b100 "
#5865376873104
0#
b111000 $
#5865378685488
1#
#5865380872848
b101 "
#5865390372240
0#
b0 $
#5865390684720
1#
#5879521801104
b1110 "
#5879529967248
b1111 "
#5882225461392
b10 "
#5882234960784
0#
b101010 $
#5882235606576
1#
#5882238960528
b11 "
#5882248459920
0#
b0 $
#5882249605680
1#
#5882259625872
b100 "
#5882269125264
0#
b101110 $
#5882269604400
1#
#5882273125008
b101 "
#5882282624400
0#
b0 $
#5882283686832
1#
#5896420886160
b1110 "
#5896428885648
b1111 "
#5899114213776
b0 "
#5899123713168
0#
#5899124671440
1#
#5899127712912
b1 "
#5899137212304
0#
#5899138524720
1#
#5899148211600
b10 "
#5899157710992
0#
#5899158669264
1#
#5899161710736
b11 "
#5899171210128
0#
#5899172522544
1#
#5899182209424
b100 "
#5899191708816
0#
#5899192667088
1#
#5899195708560
b101 "
#5899205207952
0#
#5899206520368
1#
#5899217540496
b110 "
#5899227039888
0#
#5899228518960
1#
#5899236872592
b111 "
#5899246371984
0#
b111111 $
#5899246517808
1#
#5899256204688
b1000 "
#5899265704080
0#
b0 $
#5899266516528
1#
#5899275536784
b1001 "
#5899285036176
0#
#5899286515248
1#
#5899294868880
b1010 "
#5899304368272
0#
#5899304514096
1#
#5899328366736
b1011 "
#5899337866128
0#
#5899338511920
1#
#5899341865872
b1100 "
#5899351365264
0#
#5899352511024
1#
#5899359364752
b1101 "
#5899368864144
0#
#5899370509872
1#
#5899411194768
b0 "
#5899420694160
0#
#5899422506544
1#
#5899424693904
b1 "
#5899434193296
0#
#5899434505776
1#
#5899445192592
b10 "
#5899454691984
0#
#5899456504368
1#
#5899458691728
b11 "
#5899468191120
0#
#5899468503600
1#
#5899479190416
b100 "
#5899488856464
0#
#5899490502192
1#
#5899492856208
b101 "
#5899502355600
0#
#5899502501424
1#
#5899514688144
b110 "
#5899524187536
0#
#5899524500016
1#
#5899534020240
b111 "
#5899543519632
0#
b111111 $
#5899544498736
1#
#5899553352336
b1000 "
#5899562851728
0#
b0 $
#5899564497456
1#
#5899572684432
b1001 "
#5899582183824
0#
#5899582496304
1#
#5899592245680
b1010 "
#5899601515920
0#
#5899602495024
1#
#5899625514384
b1011 "
#5899635013776
0#
#5899636492848
1#
#5899639013520
b1100 "
#5899648512912
0#
#5899650491952
1#
#5899656345744
b1101 "
#5899665845136
0#
#5899666490928
1#
#5913316304784
b1110 "
#5913324304272
b1111 "
#5930210223504
b1110 "
#5930218222992
b1111 "
#5947100142480
b1110 "
#5947108141968
b1111 "
#5963997560976
b1110 "
#5964005560464
b1111 "
#5980889979792
b1110 "
#5980897979280
b1111 "
#5997785398416
b1110 "
#5997793397904
b1111 "
#6014679150480
b1110 "
#6014687149968
b1111 "
#6031576568976
b1110 "
#6031584568464
b1111 "
#6048471487632
b1110 "
#6048479487120
b1111 "
#6065370572688
b1110 "
#6065378572176
b1111 "
#6082266387120
b1110 "
#6082274324112
b1111 "
